{
  "appHost": "room.local.fr",
  "appCdn": "room.local.fr",
  "appProtocol": "https",
  "actorHost": "actor.local.fr",
  "actorCdn": "actor.local.fr",
  "actorProtocol": "https",
  "domain": "test.mfbwebsite.fr",
  "deployment_timestamp": 1615197652,
  "scenarios": [
    {
      "settings": {},
      "object_id": 2,
      "campaign_id": 123,
      "deployment_id": 45,
      "urlDeployment": "http:\\/\\/room.local.fr\\/website\\/5heltjjn5f2FZ9Byy\\/data?oid=2&cid=123",
      "triggered_action": "popin",
      "themeDeployment": "horizon",
      "fontUrl": "",
      "trackingDisabled": false,
      "enableGeoloc": false,
      "previewMode": false,
      "isOffline": false,
      "testMode": 0,
      "forced_language": null,
      "language_mode": null,
      "originalLanguage": null,
      "conditions": [
        {
          "name": "GroupOr",
          "children": [
            {
              "name": "GroupAnd",
              "children": [
                {
                  "name": "varsdatas",
                  "hasServerEvaluation": "false",
                  "orderPriority": null,
                  "datas": {
                      "names": ["date1","date2","date3","date4","date5","date6","date7","date8","date9","date10"],
                      "operators" : ["=",">","<","!=",">=","<=","*=","!*=","in","notin"],
                      "values": ["2019-03-27T22:31:17","2019-03-27T22:31:17","2021-03-27T22:31:17","2021-03-27T22:31:17","2019-03-27T22:31:17","2021-03-27T22:31:17","2021-03-27T22:31:17","2021-03-27T22:31:17","2021-03-27T22:31:17,2019-03-27T22:31:17","2021-03-27T22:31:17,2019-03-27T22:31:17"]
                  }
                }
              ]
            },
            {
              "name": "GroupAnd",
              "children": [
                {
                  "name": "falseCondition",
                  "hasServerEvaluation": "false",
                  "orderPriority": null,
                  "datas": {}
                },
                {
                  "name": "falseCondition",
                  "hasServerEvaluation": "false",
                  "orderPriority": null,
                  "datas": {}
                }
              ]
            }
          ]
        }
      ]
    }
  ]
}

