{
    "appHost": "room.local.fr",
    "appCdn": "room.local.fr",
    "appProtocol": "https",
    "actorHost": "actor.local.fr",
    "actorCdn": "actor.local.fr",
    "actorProtocol": "https",
    "domain": "test.mfbwebsite.fr",
    "deployment_timestamp": 1615197652,
    "scenarios": [
        {
            "settings": {},
            "object_id": 2,
            "campaign_id": 123,
            "deployment_id": 45,
            "urlDeployment": "http:\\/\\/room.local.fr\\/website\\/5heltjjn5f2FZ9Byy\\/data?oid=2&cid=123",
            "triggered_action": "popin",
            "themeDeployment": "horizon",
            "fontUrl": "",
            "trackingDisabled": false,
            "enableGeoloc": false,
            "previewMode": false,
            "isOffline": false,
            "testMode": 0,
            "forced_language": null,
            "language_mode": null,
            "originalLanguage": null,
            "conditions": [
                {
                    "name": "GroupOr",
                    "children": [
                        {
                            "name": "GroupAnd",
                            "children": [
                                {
                                    "name": "timeoutmin",
                                    "hasServerEvaluation": "false",
                                    "orderPriority": null,
                                    "datas": {
                                        "time": "10",
                                        "type": "site",
                                        "unit": "seconds"
                                    }
                                },
                                {
                                    "name": "varsdatas",
                                    "hasServerEvaluation": "false",
                                    "orderPriority": null,
                                    "datas": {
                                        "names": ["attr1"],
                                        "operators": ["="],
                                        "values": ["A"]
                                    }
                                }
                            ]
                        },
                        {
                            "name": "GroupAnd",
                            "children": [
                                {
                                    "name": "timeoutmin",
                                    "hasServerEvaluation": "false",
                                    "orderPriority": null,
                                    "datas": {
                                        "time": "20",
                                        "type": "site",
                                        "unit": "seconds"
                                    }
                                }
                                ,
                                {
                                    "name": "varsdatas",
                                    "hasServerEvaluation": "false",
                                    "orderPriority": null,
                                    "datas": {
                                        "names": ["attr1"],
                                        "operators": ["="],
                                        "values": ["B"]
                                    }
                                }
                            ]
                        }
                    ]
                }
            ]
        }
    ]
}

